\beamer@sectionintoc {1}{Monitor Purpose and Functionality}{3}{0}{1}
\beamer@sectionintoc {2}{Monitor Construction}{6}{0}{2}
\beamer@sectionintoc {3}{Cosmic Ray Model}{8}{0}{3}
\beamer@sectionintoc {4}{Results}{14}{0}{4}
\beamer@sectionintoc {5}{Current Work}{21}{0}{5}
