\beamer@sectionintoc {1}{DUNE}{3}{0}{1}
\beamer@sectionintoc {2}{Monitor Purpose and Functionality}{5}{0}{2}
\beamer@sectionintoc {3}{Monitor Construction}{7}{0}{3}
\beamer@sectionintoc {4}{Cosmic Ray Model}{9}{0}{4}
\beamer@sectionintoc {5}{Results}{16}{0}{5}
\beamer@sectionintoc {6}{Current Work}{23}{0}{6}
