\beamer@sectionintoc {1}{Monitor Purpose and Functionality}{3}{0}{1}
\beamer@sectionintoc {2}{Monitor Construction}{4}{0}{2}
\beamer@sectionintoc {3}{Cosmic Ray Model}{6}{0}{3}
\beamer@sectionintoc {4}{Results}{13}{0}{4}
\beamer@sectionintoc {5}{Current Work}{19}{0}{5}
