\beamer@sectionintoc {1}{Neutrino Oscillations}{3}{0}{1}
\beamer@sectionintoc {2}{Deep Underground Neutrino Experiment (DUNE)}{4}{0}{2}
\beamer@sectionintoc {3}{Stopped Muon Monitor}{6}{0}{3}
\beamer@sectionintoc {4}{Monte Carlo Setup}{11}{0}{4}
\beamer@sectionintoc {5}{Results}{16}{0}{5}
