\beamer@sectionintoc {1}{Neutrino Oscillations}{2}{0}{1}
\beamer@sectionintoc {2}{Deep Underground Neutrino Experiment (DUNE)}{5}{0}{2}
\beamer@sectionintoc {3}{Stopped Muon Monitor}{11}{0}{3}
\beamer@sectionintoc {4}{Monte Carlo Setup}{17}{0}{4}
\beamer@sectionintoc {5}{Results and Current Work}{22}{0}{5}
