\beamer@sectionintoc {1}{Neutrino Oscillations}{3}{0}{1}
\beamer@sectionintoc {2}{Deep Underground Neutrino Experiment (DUNE)}{8}{0}{2}
\beamer@sectionintoc {3}{Stopped Muon Monitor}{13}{0}{3}
\beamer@sectionintoc {4}{Monte Carlo Setup}{20}{0}{4}
\beamer@sectionintoc {5}{Results and Current Work}{27}{0}{5}
