\BOOKMARK [2][]{Outline0.1}{Neutrino Oscillations}{}% 1
\BOOKMARK [2][]{Outline0.2}{Deep Underground Neutrino Experiment \(DUNE\)}{}% 2
\BOOKMARK [2][]{Outline0.3}{Stopped Muon Monitor}{}% 3
\BOOKMARK [2][]{Outline0.4}{Monte Carlo Setup}{}% 4
\BOOKMARK [2][]{Outline0.5}{Results and Current Work}{}% 5
